[gd_scene load_steps=3 format=2]

[ext_resource path="res://blokoj/asteroidoj/resursoj/ast_shards_1.glb" type="PackedScene" id=1]

[sub_resource type="ConcavePolygonShape" id=1]
data = PoolVector3Array( -7.5629, 5.3958, -6.8105, -9.1579, 5.1985, -4.8945, -7.4372, 4.8608, -6.8895, -9.0274, 4.1983, -1.9471, -9.283, 4.7836, -2.315, -8.3359, 6.2245, -1.2735, -9.1579, 5.1985, -4.8945, -8.3359, 6.2245, -1.2735, -9.283, 4.7836, -2.315, -7.6891, 3.0527, -4.9337, -7.4372, 4.8608, -6.8895, -9.1579, 5.1985, -4.8945, -8.1155, 6.0966, -5.545, -9.1579, 5.1985, -4.8945, -7.5629, 5.3958, -6.8105, -6.8167, 5.2381, -3.032, -8.1155, 6.0966, -5.545, -7.5629, 5.3958, -6.8105, -9.0274, 4.1983, -1.9471, -9.1579, 5.1985, -4.8945, -9.283, 4.7836, -2.315, -6.9302, 3.2589, -5.8543, -7.4372, 4.8608, -6.8895, -7.6891, 3.0527, -4.9337, -8.3359, 6.2245, -1.2735, -6.8167, 5.2381, -3.032, -8.1449, 5.6233, -0.9328, -8.0706, 6.5734, -2.0536, -9.1579, 5.1985, -4.8945, -8.1155, 6.0966, -5.545, 3.4485, 5.315, -0.6177, 4.3147, 5.2625, -1.1314, 5.2971, 5.2447, -0.4923, 3.4485, 5.315, -0.6177, 5.2971, 5.2447, -0.4923, 4.4426, 5.9433, 2.3129, 3.1703, 5.4499, 2.0718, 3.4485, 5.315, -0.6177, 4.4426, 5.9433, 2.3129, 3.1703, 5.4499, 2.0718, 4.4426, 5.9433, 2.3129, 3.805, 5.4046, 3.0332, 5.2971, 5.2447, -0.4923, 6.4492, 4.7027, 1.7669, 5.3749, 5.6142, 2.7026, 4.4671, 4.2063, 3.8943, 2.486, 2.8227, 2.0741, 2.94, 3.891, 3.0376, 6.4492, 4.7027, 1.7669, 5.9646, 4.3944, 3.1081, 5.3749, 5.6142, 2.7026, 4.8268, 2.8449, 2.9561, 2.486, 2.8227, 2.0741, 4.4671, 4.2063, 3.8943, 2.486, 2.8227, 2.0741, 2.3629, 3.7013, 1.6332, 2.94, 3.891, 3.0376, 2.94, 3.891, 3.0376, 2.3629, 3.7013, 1.6332, 3.1703, 5.4499, 2.0718, 3.4485, 5.315, -0.6177, 3.1703, 5.4499, 2.0718, 2.3629, 3.7013, 1.6332, 4.3147, 5.2625, -1.1314, 4.1359, 3.3728, -1.4057, 5.2971, 5.2447, -0.4923, 5.2971, 5.2447, -0.4923, 5.2824, 2.8342, -0.3155, 6.3608, 3.4139, 1.2808, 5.2971, 5.2447, -0.4923, 6.3608, 3.4139, 1.2808, 6.4492, 4.7027, 1.7669, 6.3608, 3.4139, 1.2808, 4.8268, 2.8449, 2.9561, 5.9646, 4.3944, 3.1081, 5.2824, 2.8342, -0.3155, 4.8268, 2.8449, 2.9561, 6.3608, 3.4139, 1.2808, 4.3147, 5.2625, -1.1314, 3.2019, 3.9063, -0.7412, 4.1359, 3.3728, -1.4057, 3.3147, 2.8043, -0.0589, 5.2824, 2.8342, -0.3155, 4.1359, 3.3728, -1.4057, 2.3629, 3.7013, 1.6332, 3.3147, 2.8043, -0.0589, 3.2019, 3.9063, -0.7412, 3.4485, 5.315, -0.6177, 3.2019, 3.9063, -0.7412, 4.3147, 5.2625, -1.1314, 5.2971, 5.2447, -0.4923, 5.3749, 5.6142, 2.7026, 4.4426, 5.9433, 2.3129, 4.4426, 5.9433, 2.3129, 5.3749, 5.6142, 2.7026, 3.805, 5.4046, 3.0332, 5.9646, 4.3944, 3.1081, 4.4671, 4.2063, 3.8943, 5.3749, 5.6142, 2.7026, 4.8268, 2.8449, 2.9561, 4.4671, 4.2063, 3.8943, 5.9646, 4.3944, 3.1081, 5.3749, 5.6142, 2.7026, 4.4671, 4.2063, 3.8943, 3.805, 5.4046, 3.0332, 4.4671, 4.2063, 3.8943, 2.94, 3.891, 3.0376, 3.805, 5.4046, 3.0332, 3.3147, 2.8043, -0.0589, 2.3629, 3.7013, 1.6332, 2.486, 2.8227, 2.0741, 3.805, 5.4046, 3.0332, 2.94, 3.891, 3.0376, 3.1703, 5.4499, 2.0718, 2.486, 2.8227, 2.0741, 4.8268, 2.8449, 2.9561, 3.3147, 2.8043, -0.0589, 3.3147, 2.8043, -0.0589, 4.8268, 2.8449, 2.9561, 5.2824, 2.8342, -0.3155, 4.1359, 3.3728, -1.4057, 5.2824, 2.8342, -0.3155, 5.2971, 5.2447, -0.4923, 6.3608, 3.4139, 1.2808, 5.9646, 4.3944, 3.1081, 6.4492, 4.7027, 1.7669, 2.3629, 3.7013, 1.6332, 3.2019, 3.9063, -0.7412, 3.4485, 5.315, -0.6177, 3.2019, 3.9063, -0.7412, 3.3147, 2.8043, -0.0589, 4.1359, 3.3728, -1.4057, 2.3103, -8.864, -5.976, 3.8118, -9.195, -5.6991, 3.3262, -8.3148, -7.1692, 2.3103, -8.864, -5.976, 1.6876, -9.1042, -3.7727, 3.8118, -9.195, -5.6991, 1.19, -6.3844, 6.6189, -2.1936, -5.653, 6.6454, -1.2361, -5.5138, 6.9705, -2.1936, -5.653, 6.6454, -1.3589, -6.8554, 5.0278, -3.0204, -5.0886, 5.1955, 1.19, -6.3844, 6.6189, -1.3589, -6.8554, 5.0278, -2.1936, -5.653, 6.6454, -1.3589, -6.8554, 5.0278, -0.6192, -6.8877, 4.1077, -2.2302, -6.2513, 3.8143, 1.19, -6.3844, 6.6189, -0.0171, -4.1469, 5.3303, 1.0051, -4.8726, 5.4664, -0.6192, -6.8877, 4.1077, -1.3589, -6.8554, 5.0278, 1.5893, -6.7291, 5.1464, -3.0204, -5.0886, 5.1955, -1.3589, -6.8554, 5.0278, -2.2302, -6.2513, 3.8143, -2.2302, -6.2513, 3.8143, -0.0171, -4.1469, 5.3303, -3.0204, -5.0886, 5.1955, 10.1989, 0.573, 2.7082, 11.022, 0.5023, 3.4932, 10.8562, 0.8395, 6.6098, 10.8562, 0.8395, 6.6098, 10.4237, -0.6121, 7.8188, 9.4829, 0.712, 7.0386, 11.022, 0.5023, 3.4932, 10.4785, -0.1401, 1.7541, 11.7684, 0.1011, 4.6228, 10.1989, 0.573, 2.7082, 10.8562, 0.8395, 6.6098, 9.1203, 1.3434, 6.0829, 9.1203, 1.3434, 6.0829, 10.8562, 0.8395, 6.6098, 9.4829, 0.712, 7.0386, 10.4785, -0.1401, 1.7541, 11.022, 0.5023, 3.4932, 10.1989, 0.573, 2.7082, 10.4237, -0.6121, 7.8188, 10.4603, -1.3756, 7.5248, 9.4829, 0.712, 7.0386, 9.2196, -0.821, 3.4718, 9.6258, -1.5473, 4.8157, 10.4785, -0.1401, 1.7541, 9.4829, 0.712, 7.0386, 9.6258, -1.5473, 4.8157, 9.1203, 1.3434, 6.0829, 11.7818, -1.868, 5.4494, 11.6344, -0.7542, 7.004, 12.101, -0.6903, 5.8579, 12.101, -0.6903, 5.8579, 10.8562, 0.8395, 6.6098, 11.7684, 0.1011, 4.6228, 10.4237, -0.6121, 7.8188, 11.6344, -0.7542, 7.004, 10.4603, -1.3756, 7.5248, 10.4603, -1.3756, 7.5248, 11.6344, -0.7542, 7.004, 10.9902, -2.2516, 6.4275, 10.9902, -2.2516, 6.4275, 11.6344, -0.7542, 7.004, 11.7818, -1.868, 5.4494, 3.3725, -4.1451, 1.1018, 2.0606, -4.0785, 2.1591, 3.239, -2.6555, 2.3534, 2.0606, -4.0785, 2.1591, -0.4993, -4.2966, 0.839, 1.7477, -3.0845, 2.8721, -0.4993, -4.2966, 0.839, -0.9164, -2.7572, -0.2748, 0.022, -2.9066, 2.0094, 0.022, -2.9066, 2.0094, -0.9164, -2.7572, -0.2748, -0.3615, -2.4477, 0.896, -0.4993, -4.2966, 0.839, -0.8081, -4.2318, 0.0695, -0.9164, -2.7572, -0.2748, 2.8577, -4.4012, 0.6067, -0.4993, -4.2966, 0.839, 2.0606, -4.0785, 2.1591, 3.6654, -3.5187, 1.2747, 3.3725, -4.1451, 1.1018, 3.239, -2.6555, 2.3534, 2.0606, -4.0785, 2.1591, 1.7477, -3.0845, 2.8721, 3.239, -2.6555, 2.3534, 2.8577, -4.4012, 0.6067, 2.0606, -4.0785, 2.1591, 3.3725, -4.1451, 1.1018, -0.8081, -4.2318, 0.0695, -0.4993, -4.2966, 0.839, -0.2956, -4.3049, -0.8714, 3.239, -2.6555, 2.3534, 2.0988, -2.948, -0.2109, 3.6654, -3.5187, 1.2747, 2.8577, -4.4012, 0.6067, 2.0988, -2.948, -0.2109, -0.2956, -4.3049, -0.8714, -0.3615, -2.4477, 0.896, 2.0988, -2.948, -0.2109, 3.239, -2.6555, 2.3534, 0.022, -2.9066, 2.0094, 1.7477, -3.0845, 2.8721, -0.4993, -4.2966, 0.839, -0.2956, -4.3049, -0.8714, -0.9164, -2.7572, -0.2748, -0.8081, -4.2318, 0.0695, -4.2963, 2.1146, 3.8567, -4.016, 1.895, 1.1607, -2.6587, 2.6679, 4.6516, -3.901, 1.8257, 4.916, -4.2963, 2.1146, 3.8567, -2.6587, 2.6679, 4.6516, -2.6587, 2.6679, 4.6516, -2.1386, 1.7382, 5.4835, -3.901, 1.8257, 4.916, -2.5273, 0.4871, 2.0597, -5.3163, -0.0654, 2.8449, -2.2314, -0.3607, 2.8637, -2.1386, 1.7382, 5.4835, -2.2314, -0.3607, 2.8637, -1.6485, 0.1837, 5.2589, -4.016, 1.895, 1.1607, -4.2963, 2.1146, 3.8567, -5.3163, -0.0654, 2.8449, -4.8899, 0.273, 4.1834, -5.3163, -0.0654, 2.8449, -4.2963, 2.1146, 3.8567, -5.6602, 5.9767, -4.6895, -4.3636, 6.7434, -1.5687, -4.2604, 4.6764, -4.0039, -3.502, 5.0782, -6.1272, -4.3112, 5.8174, -6.4732, -4.2604, 4.6764, -4.0039, -3.275, 5.992, -4.9752, -4.3112, 5.8174, -6.4732, -3.502, 5.0782, -6.1272, 1.4021, -0.1789, 11.9317, 0.1617, -1.5833, 12.1789, -0.6965, 0.6494, 11.0291, -0.6965, 0.6494, 11.0291, 0.1617, -1.5833, 12.1789, -1.6979, -1.3931, 11.121, -0.6965, 0.6494, 11.0291, -1.6979, -1.3931, 11.121, -1.9865, -0.9353, 10.1649, 0.7362, 0.5343, 11.4202, -1.9865, -0.9353, 10.1649, 1.694, -1.1692, 11.4948, 1.694, -1.1692, 11.4948, 0.1617, -1.5833, 12.1789, 1.4021, -0.1789, 11.9317, 0.7362, 0.5343, 11.4202, 1.4021, -0.1789, 11.9317, -0.6965, 0.6494, 11.0291, 6.8456, -2.7235, -7.7334, 8.8171, -3.2701, -6.3216, 7.0279, -2.1558, -7.9339, 10.2332, -2.0987, -3.8056, 9.9918, -2.7559, -4.0421, 8.8158, -3.2181, -2.4683, 8.8171, -3.2701, -6.3216, 8.8158, -3.2181, -2.4683, 9.9918, -2.7559, -4.0421, 8.8214, -0.6753, -6.6836, 7.0279, -2.1558, -7.9339, 8.8171, -3.2701, -6.3216, 7.3095, -3.4149, -6.4759, 8.8171, -3.2701, -6.3216, 6.8456, -2.7235, -7.7334, 7.5998, -1.6879, -4.1081, 7.3095, -3.4149, -6.4759, 6.8456, -2.7235, -7.7334, 10.2332, -2.0987, -3.8056, 8.8171, -3.2701, -6.3216, 9.9918, -2.7559, -4.0421, 7.8468, -0.4889, -7.3014, 7.0279, -2.1558, -7.9339, 8.8214, -0.6753, -6.6836, 8.8158, -3.2181, -2.4683, 7.5998, -1.6879, -4.1081, 9.1245, -2.5656, -2.2695, 8.1492, -3.4175, -3.1237, 8.8171, -3.2701, -6.3216, 7.3095, -3.4149, -6.4759, 1.2242, 2.5078, -10.8514, 0.2329, 2.4241, -9.5518, 0.0311, 1.436, -11.1065, 1.2242, 2.5078, -10.8514, 2.8126, 3.5206, -9.585, 0.2329, 2.4241, -9.5518, 2.3211, 8.8536, -3.2572, 3.9753, 9.3799, -3.0811, 3.9024, 7.8408, -2.2024, 3.9753, 9.3799, -3.0811, 4.8902, 10.0339, -5.719, 5.0298, 8.779, -2.7329, 4.8902, 10.0339, -5.719, 5.1623, 8.4865, -6.8912, 5.7961, 8.9838, -4.4914, 5.7961, 8.9838, -4.4914, 5.1623, 8.4865, -6.8912, 5.652, 8.422, -5.4727, 4.8902, 10.0339, -5.719, 4.6823, 9.8625, -6.5288, 5.1623, 8.4865, -6.8912, 2.3211, 8.8536, -3.2572, 4.8902, 10.0339, -5.719, 3.9753, 9.3799, -3.0811, 2.5927, 8.1084, -2.7183, 2.3211, 8.8536, -3.2572, 3.9024, 7.8408, -2.2024, 3.9753, 9.3799, -3.0811, 5.0298, 8.779, -2.7329, 3.9024, 7.8408, -2.2024, 4.6823, 9.8625, -6.5288, 4.8902, 10.0339, -5.719, 3.7548, 9.5075, -6.9092, 3.9024, 7.8408, -2.2024, 3.0385, 7.6853, -4.8438, 2.5927, 8.1084, -2.7183, 2.3211, 8.8536, -3.2572, 3.0385, 7.6853, -4.8438, 3.7548, 9.5075, -6.9092, 5.652, 8.422, -5.4727, 3.0385, 7.6853, -4.8438, 3.9024, 7.8408, -2.2024, 5.7961, 8.9838, -4.4914, 5.0298, 8.779, -2.7329, 4.8902, 10.0339, -5.719, 3.7548, 9.5075, -6.9092, 5.1623, 8.4865, -6.8912, 4.6823, 9.8625, -6.5288, -2.7145, 7.6103, 3.3187, -2.7897, 7.3609, 4.2294, -3.623, 8.8458, 5.0858, -3.9904, 9.1999, 4.2323, -2.7145, 7.6103, 3.3187, -3.623, 8.8458, 5.0858, -2.7897, 7.3609, 4.2294, -3.6587, 7.6945, 5.4641, -3.623, 8.8458, 5.0858, -4.9, 8.878, 5.0746, -5.1481, 8.2754, 3.2798, -4.966, 8.869, 4.0159, -3.6587, 7.6945, 5.4641, -4.3319, 8.2267, 5.6063, -3.623, 8.8458, 5.0858, -5.1604, 7.9178, 4.8665, -5.1481, 8.2754, 3.2798, -4.9, 8.878, 5.0746, -4.966, 8.869, 4.0159, -5.1481, 8.2754, 3.2798, -3.9904, 9.1999, 4.2323, -2.7145, 7.6103, 3.3187, -3.9904, 9.1999, 4.2323, -5.1481, 8.2754, 3.2798, -2.7145, 7.6103, 3.3187, -3.5109, 6.6604, 3.224, -2.7897, 7.3609, 4.2294, -2.7897, 7.3609, 4.2294, -3.9275, 6.55, 4.0923, -4.097, 7.0777, 5.1832, -2.7897, 7.3609, 4.2294, -4.097, 7.0777, 5.1832, -3.6587, 7.6945, 5.4641, -4.097, 7.0777, 5.1832, -5.1604, 7.9178, 4.8665, -4.3319, 8.2267, 5.6063, -3.9275, 6.55, 4.0923, -5.1604, 7.9178, 4.8665, -4.097, 7.0777, 5.1832, -2.7145, 7.6103, 3.3187, -3.6216, 7.3696, 2.9936, -3.5109, 6.6604, 3.224, -4.3557, 7.1832, 3.1816, -3.9275, 6.55, 4.0923, -3.5109, 6.6604, 3.224, -5.1481, 8.2754, 3.2798, -4.3557, 7.1832, 3.1816, -3.6216, 7.3696, 2.9936, -4.3319, 8.2267, 5.6063, -4.9, 8.878, 5.0746, -3.623, 8.8458, 5.0858, -5.1604, 7.9178, 4.8665, -4.9, 8.878, 5.0746, -4.3319, 8.2267, 5.6063, -3.623, 8.8458, 5.0858, -4.9, 8.878, 5.0746, -3.9904, 9.1999, 4.2323, -4.9, 8.878, 5.0746, -4.966, 8.869, 4.0159, -3.9904, 9.1999, 4.2323, -5.1481, 8.2754, 3.2798, -5.1604, 7.9178, 4.8665, -4.3557, 7.1832, 3.1816, -4.3557, 7.1832, 3.1816, -5.1604, 7.9178, 4.8665, -3.9275, 6.55, 4.0923, -3.5109, 6.6604, 3.224, -3.9275, 6.55, 4.0923, -2.7897, 7.3609, 4.2294, -4.097, 7.0777, 5.1832, -4.3319, 8.2267, 5.6063, -3.6587, 7.6945, 5.4641, -5.1481, 8.2754, 3.2798, -3.6216, 7.3696, 2.9936, -2.7145, 7.6103, 3.3187, -3.6216, 7.3696, 2.9936, -4.3557, 7.1832, 3.1816, -3.5109, 6.6604, 3.224, -7.1911, -7.7728, -4.9039, -6.325, -7.8253, -5.4176, -5.3426, -7.843, -4.7784, -7.1911, -7.7728, -4.9039, -5.3426, -7.843, -4.7784, -6.197, -7.1444, -1.9733, -7.4693, -7.6378, -2.2144, -7.1911, -7.7728, -4.9039, -6.197, -7.1444, -1.9733, -7.4693, -7.6378, -2.2144, -6.197, -7.1444, -1.9733, -6.8346, -7.6832, -1.2529, -5.3426, -7.843, -4.7784, -4.1904, -8.385, -2.5193, -5.2647, -7.4735, -1.5836, -6.1726, -8.8815, -0.3918, -8.1536, -10.265, -2.2121, -7.6996, -9.1967, -1.2485, -4.1904, -8.385, -2.5193, -4.675, -8.6934, -1.1781, -5.2647, -7.4735, -1.5836, -5.8128, -10.2428, -1.3301, -8.1536, -10.265, -2.2121, -6.1726, -8.8815, -0.3918, -8.1536, -10.265, -2.2121, -8.2767, -9.3864, -2.6529, -7.6996, -9.1967, -1.2485, -7.6996, -9.1967, -1.2485, -8.2767, -9.3864, -2.6529, -7.4693, -7.6378, -2.2144, -7.1911, -7.7728, -4.9039, -7.4693, -7.6378, -2.2144, -8.2767, -9.3864, -2.6529, -6.325, -7.8253, -5.4176, -6.5038, -9.7149, -5.6919, -5.3426, -7.843, -4.7784, -5.3426, -7.843, -4.7784, -5.3572, -10.2536, -4.6016, -4.2789, -9.6739, -3.0054, -5.3426, -7.843, -4.7784, -4.2789, -9.6739, -3.0054, -4.1904, -8.385, -2.5193, -4.2789, -9.6739, -3.0054, -5.8128, -10.2428, -1.3301, -4.675, -8.6934, -1.1781, -5.3572, -10.2536, -4.6016, -5.8128, -10.2428, -1.3301, -4.2789, -9.6739, -3.0054, -6.325, -7.8253, -5.4176, -7.4378, -9.1814, -5.0274, -6.5038, -9.7149, -5.6919, -7.3249, -10.2835, -4.345, -5.3572, -10.2536, -4.6016, -6.5038, -9.7149, -5.6919, -8.2767, -9.3864, -2.6529, -7.3249, -10.2835, -4.345, -7.4378, -9.1814, -5.0274, -7.1911, -7.7728, -4.9039, -7.4378, -9.1814, -5.0274, -6.325, -7.8253, -5.4176, -5.3426, -7.843, -4.7784, -5.2647, -7.4735, -1.5836, -6.197, -7.1444, -1.9733, -6.197, -7.1444, -1.9733, -5.2647, -7.4735, -1.5836, -6.8346, -7.6832, -1.2529, -4.675, -8.6934, -1.1781, -6.1726, -8.8815, -0.3918, -5.2647, -7.4735, -1.5836, -5.8128, -10.2428, -1.3301, -6.1726, -8.8815, -0.3918, -4.675, -8.6934, -1.1781, -5.2647, -7.4735, -1.5836, -6.1726, -8.8815, -0.3918, -6.8346, -7.6832, -1.2529, -6.1726, -8.8815, -0.3918, -7.6996, -9.1967, -1.2485, -6.8346, -7.6832, -1.2529, -7.3249, -10.2835, -4.345, -8.2767, -9.3864, -2.6529, -8.1536, -10.265, -2.2121, -6.8346, -7.6832, -1.2529, -7.6996, -9.1967, -1.2485, -7.4693, -7.6378, -2.2144, -8.1536, -10.265, -2.2121, -5.8128, -10.2428, -1.3301, -7.3249, -10.2835, -4.345, -7.3249, -10.2835, -4.345, -5.8128, -10.2428, -1.3301, -5.3572, -10.2536, -4.6016, -6.5038, -9.7149, -5.6919, -5.3572, -10.2536, -4.6016, -5.3426, -7.843, -4.7784, -4.2789, -9.6739, -3.0054, -4.675, -8.6934, -1.1781, -4.1904, -8.385, -2.5193, -8.2767, -9.3864, -2.6529, -7.4378, -9.1814, -5.0274, -7.1911, -7.7728, -4.9039, -7.4378, -9.1814, -5.0274, -7.3249, -10.2835, -4.345, -6.5038, -9.7149, -5.6919, -9.1883, -1.135, -3.5991, -7.8757, 0.8677, -6.0928, -8.1141, 0.6752, -5.1191, -7.8757, 0.8677, -6.0928, -8.299, -1.2366, -6.4968, -6.5656, 0.3538, -7.0822, -9.1883, -1.135, -3.5991, -8.299, -1.2366, -6.4968, -7.8757, 0.8677, -6.0928, -8.299, -1.2366, -6.4968, -8.1251, -2.4008, -6.0896, -7.0176, -1.567, -7.4223, -9.1883, -1.135, -3.5991, -6.4033, -0.8191, -4.1544, -7.312, -1.47, -3.5535, -8.1251, -2.4008, -6.0896, -8.299, -1.2366, -6.4968, -8.8684, -2.6069, -3.9566, -6.5656, 0.3538, -7.0822, -8.299, -1.2366, -6.4968, -7.0176, -1.567, -7.4223, -7.0176, -1.567, -7.4223, -6.4033, -0.8191, -4.1544, -6.5656, 0.3538, -7.0822, -8.0706, 6.5734, -2.0536, -8.3359, 6.2245, -1.2735, -9.1579, 5.1985, -4.8945, -9.0274, 4.1983, -1.9471, -8.3359, 6.2245, -1.2735, -8.1449, 5.6233, -0.9328, -6.8167, 5.2381, -3.032, -7.4372, 4.8608, -6.8895, -6.9302, 3.2589, -5.8543, -7.5629, 5.3958, -6.8105, -7.4372, 4.8608, -6.8895, -6.8167, 5.2381, -3.032, -8.1155, 6.0966, -5.545, -6.8167, 5.2381, -3.032, -8.0706, 6.5734, -2.0536, -9.0274, 4.1983, -1.9471, -6.8167, 5.2381, -3.032, -7.6891, 3.0527, -4.9337, -7.6891, 3.0527, -4.9337, -6.8167, 5.2381, -3.032, -6.9302, 3.2589, -5.8543, -9.0274, 4.1983, -1.9471, -8.1449, 5.6233, -0.9328, -6.8167, 5.2381, -3.032, -6.8167, 5.2381, -3.032, -8.3359, 6.2245, -1.2735, -8.0706, 6.5734, -2.0536, -7.6891, 3.0527, -4.9337, -9.1579, 5.1985, -4.8945, -9.0274, 4.1983, -1.9471, 4.6238, -9.1509, -2.4695, 3.8118, -9.195, -5.6991, 1.6876, -9.1042, -3.7727, 4.0816, -7.3188, -3.5048, 4.6238, -9.1509, -2.4695, 3.1667, -7.8003, -3.4642, 3.1667, -7.8003, -3.4642, 2.3103, -8.864, -5.976, 4.0816, -7.3188, -3.5048, 3.3262, -8.3148, -7.1692, 4.0816, -7.3188, -3.5048, 2.3103, -8.864, -5.976, 2.3103, -8.864, -5.976, 3.1667, -7.8003, -3.4642, 1.6876, -9.1042, -3.7727, 1.6876, -9.1042, -3.7727, 3.1667, -7.8003, -3.4642, 4.6238, -9.1509, -2.4695, 4.6238, -9.1509, -2.4695, 4.0816, -7.3188, -3.5048, 3.3262, -8.3148, -7.1692, 3.3262, -8.3148, -7.1692, 3.8118, -9.195, -5.6991, 4.6238, -9.1509, -2.4695, 1.19, -6.3844, 6.6189, 1.5893, -6.7291, 5.1464, -1.3589, -6.8554, 5.0278, 1.5893, -6.7291, 5.1464, 1.0051, -4.8726, 5.4664, -0.6192, -6.8877, 4.1077, -0.6192, -6.8877, 4.1077, -0.0171, -4.1469, 5.3303, -2.2302, -6.2513, 3.8143, -0.0171, -4.1469, 5.3303, -0.6192, -6.8877, 4.1077, 1.0051, -4.8726, 5.4664, -1.2361, -5.5138, 6.9705, -0.0171, -4.1469, 5.3303, 1.19, -6.3844, 6.6189, 1.0051, -4.8726, 5.4664, 1.5893, -6.7291, 5.1464, 1.19, -6.3844, 6.6189, -0.0171, -4.1469, 5.3303, -2.1936, -5.653, 6.6454, -3.0204, -5.0886, 5.1955, -2.1936, -5.653, 6.6454, -0.0171, -4.1469, 5.3303, -1.2361, -5.5138, 6.9705, 11.022, 0.5023, 3.4932, 11.7684, 0.1011, 4.6228, 10.8562, 0.8395, 6.6098, 10.8562, 0.8395, 6.6098, 12.101, -0.6903, 5.8579, 11.6344, -0.7542, 7.004, 11.6344, -0.7542, 7.004, 10.4237, -0.6121, 7.8188, 10.8562, 0.8395, 6.6098, 10.4603, -1.3756, 7.5248, 10.9902, -2.2516, 6.4275, 9.6258, -1.5473, 4.8157, 9.1203, 1.3434, 6.0829, 9.6258, -1.5473, 4.8157, 9.2196, -0.821, 3.4718, 9.6258, -1.5473, 4.8157, 9.4829, 0.712, 7.0386, 10.4603, -1.3756, 7.5248, 11.7818, -1.868, 5.4494, 11.7684, 0.1011, 4.6228, 10.4785, -0.1401, 1.7541, 12.101, -0.6903, 5.8579, 11.7684, 0.1011, 4.6228, 11.7818, -1.868, 5.4494, 10.1989, 0.573, 2.7082, 9.2196, -0.821, 3.4718, 10.4785, -0.1401, 1.7541, 9.1203, 1.3434, 6.0829, 9.2196, -0.821, 3.4718, 10.1989, 0.573, 2.7082, 10.4785, -0.1401, 1.7541, 9.6258, -1.5473, 4.8157, 11.7818, -1.868, 5.4494, 11.7818, -1.868, 5.4494, 9.6258, -1.5473, 4.8157, 10.9902, -2.2516, 6.4275, -0.4993, -4.2966, 0.839, 2.8577, -4.4012, 0.6067, -0.2956, -4.3049, -0.8714, 2.8577, -4.4012, 0.6067, 3.3725, -4.1451, 1.1018, 2.0988, -2.948, -0.2109, 2.0988, -2.948, -0.2109, 3.3725, -4.1451, 1.1018, 3.6654, -3.5187, 1.2747, -0.9164, -2.7572, -0.2748, -0.2956, -4.3049, -0.8714, 2.0988, -2.948, -0.2109, -0.9164, -2.7572, -0.2748, 2.0988, -2.948, -0.2109, -0.3615, -2.4477, 0.896, 0.022, -2.9066, 2.0094, 3.239, -2.6555, 2.3534, 1.7477, -3.0845, 2.8721, -0.3615, -2.4477, 0.896, 3.239, -2.6555, 2.3534, 0.022, -2.9066, 2.0094, -5.3163, -0.0654, 2.8449, -2.5273, 0.4871, 2.0597, -4.016, 1.895, 1.1607, -2.5273, 0.4871, 2.0597, -2.2314, -0.3607, 2.8637, -2.6587, 2.6679, 4.6516, -2.6587, 2.6679, 4.6516, -2.2314, -0.3607, 2.8637, -2.1386, 1.7382, 5.4835, -2.2314, -0.3607, 2.8637, -4.8899, 0.273, 4.1834, -1.6485, 0.1837, 5.2589, -4.8899, 0.273, 4.1834, -2.2314, -0.3607, 2.8637, -5.3163, -0.0654, 2.8449, -4.016, 1.895, 1.1607, -2.5273, 0.4871, 2.0597, -2.6587, 2.6679, 4.6516, -2.1386, 1.7382, 5.4835, -1.6485, 0.1837, 5.2589, -3.901, 1.8257, 4.916, -3.901, 1.8257, 4.916, -1.6485, 0.1837, 5.2589, -4.8899, 0.273, 4.1834, -4.8899, 0.273, 4.1834, -4.2963, 2.1146, 3.8567, -3.901, 1.8257, 4.916, -3.275, 5.992, -4.9752, -4.2604, 4.6764, -4.0039, -4.3636, 6.7434, -1.5687, -3.502, 5.0782, -6.1272, -4.2604, 4.6764, -4.0039, -3.275, 5.992, -4.9752, -5.6602, 5.9767, -4.6895, -3.275, 5.992, -4.9752, -4.3636, 6.7434, -1.5687, -5.6602, 5.9767, -4.6895, -4.2604, 4.6764, -4.0039, -4.3112, 5.8174, -6.4732, -4.3112, 5.8174, -6.4732, -3.275, 5.992, -4.9752, -5.6602, 5.9767, -4.6895, 0.1617, -1.5833, 12.1789, 1.694, -1.1692, 11.4948, -1.6979, -1.3931, 11.121, -1.6979, -1.3931, 11.121, 1.694, -1.1692, 11.4948, -1.9865, -0.9353, 10.1649, -1.9865, -0.9353, 10.1649, 0.7362, 0.5343, 11.4202, -0.6965, 0.6494, 11.0291, 1.4021, -0.1789, 11.9317, 0.7362, 0.5343, 11.4202, 1.694, -1.1692, 11.4948, 8.1492, -3.4175, -3.1237, 8.8158, -3.2181, -2.4683, 8.8171, -3.2701, -6.3216, 10.2332, -2.0987, -3.8056, 8.8158, -3.2181, -2.4683, 9.1245, -2.5656, -2.2695, 7.5998, -1.6879, -4.1081, 7.0279, -2.1558, -7.9339, 7.8468, -0.4889, -7.3014, 6.8456, -2.7235, -7.7334, 7.0279, -2.1558, -7.9339, 7.5998, -1.6879, -4.1081, 7.3095, -3.4149, -6.4759, 7.5998, -1.6879, -4.1081, 8.1492, -3.4175, -3.1237, 10.2332, -2.0987, -3.8056, 7.5998, -1.6879, -4.1081, 8.8214, -0.6753, -6.6836, 8.8214, -0.6753, -6.6836, 7.5998, -1.6879, -4.1081, 7.8468, -0.4889, -7.3014, 10.2332, -2.0987, -3.8056, 9.1245, -2.5656, -2.2695, 7.5998, -1.6879, -4.1081, 7.5998, -1.6879, -4.1081, 8.8158, -3.2181, -2.4683, 8.1492, -3.4175, -3.1237, 8.8214, -0.6753, -6.6836, 8.8171, -3.2701, -6.3216, 10.2332, -2.0987, -3.8056, 1.5334, 3.0021, -6.7725, 0.2329, 2.4241, -9.5518, 2.8126, 3.5206, -9.585, 2.0533, 1.1549, -7.7731, 1.5334, 3.0021, -6.7725, 2.5214, 1.9497, -8.3893, 2.5214, 1.9497, -8.3893, 1.2242, 2.5078, -10.8514, 2.0533, 1.1549, -7.7731, 0.0311, 1.436, -11.1065, 2.0533, 1.1549, -7.7731, 1.2242, 2.5078, -10.8514, 1.2242, 2.5078, -10.8514, 2.5214, 1.9497, -8.3893, 2.8126, 3.5206, -9.585, 2.8126, 3.5206, -9.585, 2.5214, 1.9497, -8.3893, 1.5334, 3.0021, -6.7725, 1.5334, 3.0021, -6.7725, 2.0533, 1.1549, -7.7731, 0.0311, 1.436, -11.1065, 0.0311, 1.436, -11.1065, 0.2329, 2.4241, -9.5518, 1.5334, 3.0021, -6.7725, 4.8902, 10.0339, -5.719, 2.3211, 8.8536, -3.2572, 3.7548, 9.5075, -6.9092, 3.0385, 7.6853, -4.8438, 2.3211, 8.8536, -3.2572, 2.5927, 8.1084, -2.7183, 5.1623, 8.4865, -6.8912, 3.7548, 9.5075, -6.9092, 3.0385, 7.6853, -4.8438, 5.1623, 8.4865, -6.8912, 3.0385, 7.6853, -4.8438, 5.652, 8.422, -5.4727, 5.7961, 8.9838, -4.4914, 3.9024, 7.8408, -2.2024, 5.0298, 8.779, -2.7329, 5.652, 8.422, -5.4727, 3.9024, 7.8408, -2.2024, 5.7961, 8.9838, -4.4914, -9.1883, -1.135, -3.5991, -8.8684, -2.6069, -3.9566, -8.299, -1.2366, -6.4968, -8.8684, -2.6069, -3.9566, -7.312, -1.47, -3.5535, -8.1251, -2.4008, -6.0896, -8.1251, -2.4008, -6.0896, -6.4033, -0.8191, -4.1544, -7.0176, -1.567, -7.4223, -6.4033, -0.8191, -4.1544, -8.1251, -2.4008, -6.0896, -7.312, -1.47, -3.5535, -8.1141, 0.6752, -5.1191, -6.4033, -0.8191, -4.1544, -9.1883, -1.135, -3.5991, -7.312, -1.47, -3.5535, -8.8684, -2.6069, -3.9566, -9.1883, -1.135, -3.5991, -6.4033, -0.8191, -4.1544, -7.8757, 0.8677, -6.0928, -6.5656, 0.3538, -7.0822, -7.8757, 0.8677, -6.0928, -6.4033, -0.8191, -4.1544, -8.1141, 0.6752, -5.1191, -0.7678, 1.0083, -1.6912, 0.0983, 0.9558, -2.2049, 1.0807, 0.938, -1.5657, -0.7678, 1.0083, -1.6912, 1.0807, 0.938, -1.5657, 0.2262, 1.6366, 1.2395, -1.046, 1.1432, 0.9984, -0.7678, 1.0083, -1.6912, 0.2262, 1.6366, 1.2395, -1.046, 1.1432, 0.9984, 0.2262, 1.6366, 1.2395, -0.4113, 1.0979, 1.9598, 1.0807, 0.938, -1.5657, 2.2329, 0.396, 0.6935, 1.1586, 1.3075, 1.6292, 0.2507, -0.1004, 2.8209, -1.7303, -1.484, 1.0007, -1.2763, -0.4157, 1.9642, 2.2329, 0.396, 0.6935, 1.7482, 0.0877, 2.0347, 1.1586, 1.3075, 1.6292, 0.6105, -1.4618, 1.8826, -1.7303, -1.484, 1.0007, 0.2507, -0.1004, 2.8209, -1.7303, -1.484, 1.0007, -1.8534, -0.6054, 0.5598, -1.2763, -0.4157, 1.9642, -1.2763, -0.4157, 1.9642, -1.8534, -0.6054, 0.5598, -1.046, 1.1432, 0.9984, -0.7678, 1.0083, -1.6912, -1.046, 1.1432, 0.9984, -1.8534, -0.6054, 0.5598, 0.0983, 0.9558, -2.2049, -0.0805, -0.9339, -2.4791, 1.0807, 0.938, -1.5657, 1.0807, 0.938, -1.5657, 1.0661, -1.4725, -1.3889, 2.1444, -0.8928, 0.2073, 1.0807, 0.938, -1.5657, 2.1444, -0.8928, 0.2073, 2.2329, 0.396, 0.6935, 2.1444, -0.8928, 0.2073, 0.6105, -1.4618, 1.8826, 1.7482, 0.0877, 2.0347, 1.0661, -1.4725, -1.3889, 0.6105, -1.4618, 1.8826, 2.1444, -0.8928, 0.2073, 0.0983, 0.9558, -2.2049, -1.0145, -0.4004, -1.8146, -0.0805, -0.9339, -2.4791, -0.9016, -1.5024, -1.1323, 1.0661, -1.4725, -1.3889, -0.0805, -0.9339, -2.4791, -1.8534, -0.6054, 0.5598, -0.9016, -1.5024, -1.1323, -1.0145, -0.4004, -1.8146, -0.7678, 1.0083, -1.6912, -1.0145, -0.4004, -1.8146, 0.0983, 0.9558, -2.2049, 1.0807, 0.938, -1.5657, 1.1586, 1.3075, 1.6292, 0.2262, 1.6366, 1.2395, 0.2262, 1.6366, 1.2395, 1.1586, 1.3075, 1.6292, -0.4113, 1.0979, 1.9598, 1.7482, 0.0877, 2.0347, 0.2507, -0.1004, 2.8209, 1.1586, 1.3075, 1.6292, 0.6105, -1.4618, 1.8826, 0.2507, -0.1004, 2.8209, 1.7482, 0.0877, 2.0347, 1.1586, 1.3075, 1.6292, 0.2507, -0.1004, 2.8209, -0.4113, 1.0979, 1.9598, 0.2507, -0.1004, 2.8209, -1.2763, -0.4157, 1.9642, -0.4113, 1.0979, 1.9598, -0.9016, -1.5024, -1.1323, -1.8534, -0.6054, 0.5598, -1.7303, -1.484, 1.0007, -0.4113, 1.0979, 1.9598, -1.2763, -0.4157, 1.9642, -1.046, 1.1432, 0.9984, -1.7303, -1.484, 1.0007, 0.6105, -1.4618, 1.8826, -0.9016, -1.5024, -1.1323, -0.9016, -1.5024, -1.1323, 0.6105, -1.4618, 1.8826, 1.0661, -1.4725, -1.3889, -0.0805, -0.9339, -2.4791, 1.0661, -1.4725, -1.3889, 1.0807, 0.938, -1.5657, 2.1444, -0.8928, 0.2073, 1.7482, 0.0877, 2.0347, 2.2329, 0.396, 0.6935, -1.8534, -0.6054, 0.5598, -1.0145, -0.4004, -1.8146, -0.7678, 1.0083, -1.6912, -1.0145, -0.4004, -1.8146, -0.9016, -1.5024, -1.1323, -0.0805, -0.9339, -2.4791 )

[node name="ast_shards_1" instance=ExtResource( 1 )]

[node name="StaticBody" type="StaticBody" parent="ast_shards_1" index="0"]

[node name="CollisionShape" type="CollisionShape" parent="ast_shards_1/StaticBody" index="0"]
shape = SubResource( 1 )
