[gd_scene load_steps=5 format=2]

[ext_resource path="res://kerno/menuo/resursoj/fonts/18957.otf" type="DynamicFontData" id=1]
[ext_resource path="res://kerno/menuo/resursoj/fonts/Buttons_stylel.tres" type="StyleBox" id=2]
[ext_resource path="res://kerno/menuo/resursoj/icons/RCentro.png" type="Texture" id=3]

[sub_resource type="DynamicFont" id=1]
font_data = ExtResource( 1 )

[node name="Objecto" type="Button"]
margin_right = 52.0
margin_bottom = 48.0
custom_styles/focus = ExtResource( 2 )
custom_fonts/font = SubResource( 1 )
icon = ExtResource( 3 )
__meta__ = {
"_edit_group_": true,
"_edit_use_anchors_": false
}
